An iterative approach to streamlining your analytical workflows using functions and for loops
…
format the character string by converting it to Title Case and pasting "Reef" at the end (e.g. "alegria" will become "Alegria Reef")

4

substitute site_name in for the hard-coded site name

Understanding deparse(substitute())

If we were to assign just the alegria data frame to our new object,site_name, running site_name would return the entire alegria data frame (which we don’t want!).

site_name <- alegria # assign the `alegria` object (which is a data frame) to a new object called `site_name`
site_name # running `site_name` returns the data frame

# A tibble: 604,872 × 87
   matlab_da…¹  year month day   decim…² E_Vel…³ E_Vel…⁴ E_Vel…⁵ E_Vel…⁶ E_Vel…⁷
         <dbl> <dbl> <chr> <chr>   <dbl>   <dbl>   <dbl>   <dbl>   <dbl>   <dbl>
 1     730121   1999 01    01     0         9999    9999    9999    9999    9999
 2     730121.  1999 01    01     0.0139    9999    9999    9999    9999    9999
 3     730121.  1999 01    01     0.0278    9999    9999    9999    9999    9999
 4     730121.  1999 01    01     0.0417    9999    9999    9999    9999    9999
 5     730121.  1999 01    01     0.0556    9999    9999    9999    9999    9999
 6     730121.  1999 01    01     0.0694    9999    9999    9999    9999    9999
 7     730121.  1999 01    01     0.0833    9999    9999    9999    9999    9999
 8     730121.  1999 01    01     0.0972    9999    9999    9999    9999    9999
 9     730121.  1999 01    01     0.111     9999    9999    9999    9999    9999
10     730121.  1999 01    01     0.125     9999    9999    9999    9999    9999
# … with 604,862 more rows, 77 more variables: E_Vel_07.5m_bin <dbl>,
#   E_Vel_08.5m_bin <dbl>, E_Vel_09.5m_bin <dbl>, E_Vel_10.5m_bin <dbl>,
#   E_Vel_11.5m_bin <dbl>, E_Vel_12.5m_bin <dbl>, E_Vel_13.5m_bin <dbl>,
#   E_Vel_14.5m_bin <dbl>, E_Vel_15.5m_bin <dbl>, E_Vel_16.5m_bin <dbl>,
#   E_Vel_17.5m_bin <dbl>, N_Vel_02.5m_bin <dbl>, N_Vel_03.5m_bin <dbl>,
#   N_Vel_04.5m_bin <dbl>, N_Vel_05.5m_bin <dbl>, N_Vel_06.5m_bin <dbl>,
#   N_Vel_07.5m_bin <dbl>, N_Vel_08.5m_bin <dbl>, N_Vel_09.5m_bin <dbl>, …
…
